Modul Data Analitik (R) - Topik 3 | Spreadsheet
…
#> Identifikasi nama sheet excel "Resto Steak jakarta"
tempat_makan_steak_jakarta <- read_excel("data/rekomendasi_tempat_makan_enak.xlsx", sheet = "Resto Steak Jakarta", na = "NA")

#> Tampilkan data sheet Resto Steak Jakarta
tempat_makan_steak_jakarta

# A tibble: 187 × 28
      no restaurant_name   city  district place unique_menu  price google_rating
   <dbl> <chr>             <chr> <chr>    <chr> <chr>        <dbl> <chr>        
 1     1 Tucano's Churras… Cent… Sudirman Sena… Classic Be… 268000 45111.0      
 2     2 Kitchenette       Sout… Senayan  Sena… Kitchenett… 205000 45050.0      
 3     3 Tony Roma's       Cent… Thamrin  UOB … Baby Back … 170000 45050.0      
 4     4 Gandy Steak House Cent… Menteng  Owne… Grilled Au… 191000 45050.0      
 5     5 Joni Steak        Cent… Gajah M… Owne… Wagyu Top …  72000 45050.0      
 6     6 MUCCA Steak       Cent… Sudirman City… Tomahawk B… 940000 45050.0      
 7     7 El Machote        Cent… Menteng  Owne… Chivito Pl… 150000 0.0          
 8     8 Waroeng Steak & … Cent… Cempaka… Owne… Sirloin Do…  34545 45020.0      
 9     9 Holycow! Menteng  Cent… Menteng  Gedu… Wagyu Rib … 199000 44989.0      
10    10 Holycow! Pecenon… Cent… Pecenon… Owne… Australian… 133000 45050.0      
# ℹ 177 more rows
# ℹ 20 more variables: google_count <chr>, platform_rating <chr>,
#   platform_count <dbl>, specialized <chr>, beef <chr>, chicken <chr>,
#   seafood <chr>, appetizer <chr>, other_dish <chr>, dessert <chr>,
#   drinks <chr>, other_poultry <chr>, takeaway <chr>, delivery <chr>,
#   outdoor <chr>, smoking_area <chr>, alcohol_served <chr>, wifi <chr>,
#   reservation <chr>, other <chr>
…
